node 10
0.0001314828395843506
0.00006465888023376465
0.00010365796089172364
0.00007284092903137207
0.00006573987007141113
0.0000763230323791504
0.0000659620761871338
0.00006549501419067383
0.0000651998519897461
0.00007287907600402833
node 20
0.00012821316719055175
0.00013606190681457518
0.00012611794471740722
0.00012566184997558593
0.00014486002922058105
0.00027461385726928713
0.0001396341323852539
0.00015295886993408204
0.00013940691947937012
0.00018784403800964355
node 30
0.00021595001220703125
0.0002146470546722412
0.00021397304534912108
0.00021300101280212401
0.00021461915969848633
0.00025185513496398925
0.00022110509872436522
0.00021152901649475097
0.00020513200759887695
0.0002206559181213379
node 40
0.0003087561130523682
0.0003449170589447021
0.00039463400840759275
0.00034073901176452637
0.0005707261562347412
0.00030587291717529296
0.00030676102638244626
0.0006152558326721192
0.0003299260139465332
0.000678887128829956
node 50
0.00085971999168396
0.0004489178657531738
0.0008836619853973389
0.0004428589344024658
0.0004390490055084229
0.00045563387870788574
0.0004357140064239502
0.0008686380386352539
0.0004682769775390625
0.00046632504463195803
node 60
0.0010785210132598878
0.0005515570640563965
0.0010319859981536865
0.0005556268692016601
0.0005530829429626464
0.0005481829643249512
0.0005510149002075195
0.0005511460304260254
0.0005504519939422607
0.0006041247844696044
node 70
0.000603071928024292
0.0005806760787963868
0.0005875880718231202
0.0005929450988769532
0.0005907680988311767
0.0005906040668487548
0.0005875880718231202
0.0005939569473266601
0.0005909221172332764
0.0006008269786834717
node 80
0.0007250549793243408
0.0007238268852233886
0.0007249078750610351
0.0007443652153015137
0.0007287540435791016
0.0007246010303497315
0.0007315928936004639
0.0007315528392791748
0.0007366509437561035
0.0007330050468444824
node 90
0.0008854238986968994
0.0008801991939544677
0.0017272670269012451
0.0011110999584197998
0.0008821709156036377
0.0009676880836486816
0.0008722250461578369
0.0009202249050140381
0.0008756740093231201
0.0009033691883087158
node 100
0.001964970111846924
0.0019056971073150636
0.0019381589889526367
0.0018991920948028564
0.0018358871936798096
0.0018440568447113037
0.002010761022567749
0.001961103916168213
0.0019244101047515868
0.002038156032562256
node 110
0.003023215055465698
0.0031953489780426024
0.0030863909721374513
0.002834187030792236
0.0031337080001831055
0.0029413700103759766
0.0028703160285949705
0.005013993978500366
0.0032045238018035887
0.003106135129928589
node 120
0.002862268924713135
0.0032572479248046877
0.00310063099861145
0.003047063112258911
0.0030598859786987306
0.0030413269996643066
0.003143592834472656
0.0031982920169830323
0.0032834749221801757
0.0031813528537750243
node 130
0.003476960897445679
0.0033548150062561034
0.0032657921314239503
0.0031405282020568847
0.0035058209896087645
0.0034123449325561524
0.003155064821243286
0.0031808571815490723
0.005602622985839844
0.0035175991058349607
node 140
0.0034269049167633056
0.0034976909160614016
0.0034668171405792237
0.0034104979038238527
0.003733597993850708
0.0034012088775634765
0.0034936981201171874
0.0034504458904266355
0.0035572509765625
0.003457450866699219
node 150
0.003603736877441406
0.0035885629653930663
0.003757338047027588
0.0038475041389465334
0.0034052760601043703
0.003734734058380127
0.0035475080013275145
0.0037408950328826902
0.0037877519130706788
0.003619193077087402
node 160
0.003991842031478882
0.003724395036697388
0.0038328568935394286
0.006624306201934814
0.003989069938659668
0.003725353002548218
0.003870743989944458
0.003840663194656372
0.003676012992858887
0.0038562309741973877
node 170
0.004407124042510986
0.003966423034667968
0.004009468078613281
0.004129568099975586
0.004150876045227051
0.003942888021469116
0.0041781609058380124
0.004177572011947632
0.004031430959701538
0.004060837984085083
node 180
0.004217691898345947
0.004623157978057861
0.004590240001678467
0.004440383195877075
0.0042247469425201415
0.004203408002853393
0.004297626972198486
0.00442880392074585
0.004424487829208374
0.004385339021682739
node 190
0.0045658330917358395
0.004621277093887329
0.004501467943191529
0.00457770299911499
0.004523600101470947
0.0045988430976867676
0.005005414009094238
0.007768520832061768
0.004604519844055176
0.004535518884658814
node 200
0.004908536195755005
0.008275398015975953
0.0056465940475463865
0.004871567964553833
0.004734968900680542
0.004723622083663941
0.0049122049808502195
0.005031274080276489
0.004865253925323486
0.004878341197967529
go interface std 10
0.000176
0.000160
0.000155
0.000164
0.000164
0.000165
0.000162
0.000154
0.000160
0.000155
go interface std 20
0.000354
0.000352
0.000382
0.000350
0.000350
0.000355
0.000384
0.000379
0.000352
0.000347
go interface std 30
0.000574
0.000569
0.000569
0.000585
0.000589
0.000606
0.000605
0.000574
0.000569
0.000595
go interface std 40
0.000859
0.000883
0.000878
0.000891
0.000878
0.000898
0.000870
0.000880
0.000856
0.000864
go interface std 50
0.001203
0.001154
0.001180
0.001182
0.001172
0.001190
0.001272
0.001213
0.001203
0.001173
go interface std 60
0.001544
0.001531
0.001513
0.001510
0.001550
0.001581
0.001546
0.001554
0.001530
0.001503
go interface std 70
0.002052
0.002153
0.002011
0.001966
0.001946
0.001966
0.001969
0.001954
0.001996
0.001961
go interface std 80
0.002394
0.002369
0.002372
0.002365
0.002388
0.002440
0.002406
0.002376
0.002378
0.002436
go interface std 90
0.002860
0.002829
0.002858
0.002792
0.003089
0.002960
0.002851
0.002881
0.002940
0.002855
go interface std 100
0.003356
0.003390
0.003342
0.003365
0.003268
0.003334
0.003306
0.003330
0.003320
0.003279
go interface std 110
0.004049
0.003887
0.003864
0.003876
0.003850
0.003853
0.003832
0.003842
0.003866
0.003878
go interface std 120
0.004537
0.004441
0.004457
0.004425
0.004428
0.004512
0.004497
0.004414
0.004423
0.004410
go interface std 130
0.005264
0.005279
0.009037
0.005329
0.005333
0.005200
0.005220
0.005267
0.005178
0.005237
go interface std 140
0.006250
0.005920
0.006030
0.005883
0.005877
0.005910
0.005884
0.005816
0.005826
0.006030
go interface std 150
0.006585
0.006625
0.006746
0.006941
0.006988
0.007023
0.006610
0.006624
0.006563
0.006589
go interface std 160
0.007334
0.007651
0.008754
0.007611
0.008301
0.007733
0.007274
0.008350
0.007600
0.007280
go interface std 170
0.009053
0.008848
0.008830
0.008913
0.008940
0.008951
0.008954
0.009803
0.009141
0.009187
go interface std 180
0.009794
0.009698
0.009720
0.009710
0.009805
0.011670
0.011967
0.010105
0.009683
0.009879
go interface std 190
0.011033
0.010564
0.010542
0.010413
0.010467
0.010715
0.010480
0.010480
0.010458
0.010512
go interface std 200
0.011519
0.012077
0.011311
0.011411
0.011425
0.011327
0.011449
0.011223
0.011247
0.011290
go interface jsoniter 10
0.000111
0.000120
0.000115
0.000114
0.000118
0.000115
0.000115
0.000110
0.000127
0.000094
go interface jsoniter 20
0.000223
0.000222
0.000236
0.000225
0.000223
0.000215
0.000224
0.000221
0.000216
0.000195
go interface jsoniter 30
0.000331
0.000335
0.000377
0.000350
0.000344
0.000321
0.000365
0.000347
0.000349
0.000346
go interface jsoniter 40
0.000576
0.000540
0.000540
0.000581
0.000530
0.000539
0.000525
0.000538
0.000550
0.000560
go interface jsoniter 50
0.000806
0.000746
0.000743
0.000752
0.000747
0.000766
0.000783
0.000708
0.000755
0.000703
go interface jsoniter 60
0.001100
0.001005
0.001118
0.001055
0.001018
0.001035
0.000985
0.001019
0.001072
0.001008
go interface jsoniter 70
0.001383
0.001384
0.001336
0.001308
0.001374
0.001367
0.001371
0.001294
0.001385
0.001333
go interface jsoniter 80
0.001715
0.001612
0.001661
0.001675
0.001696
0.001649
0.001653
0.001667
0.001659
0.001687
go interface jsoniter 90
0.002058
0.002049
0.001954
0.002057
0.002041
0.002194
0.002077
0.002127
0.002028
0.001963
go interface jsoniter 100
0.002430
0.002411
0.002356
0.002800
0.002485
0.002329
0.002324
0.002344
0.002480
0.002385
go interface jsoniter 110
0.002850
0.002785
0.002990
0.002799
0.002818
0.002804
0.002781
0.002805
0.002789
0.002774
go interface jsoniter 120
0.003270
0.003250
0.003208
0.003252
0.003203
0.003197
0.003290
0.003252
0.003235
0.003177
go interface jsoniter 130
0.003960
0.003982
0.003995
0.003982
0.004155
0.004125
0.003987
0.004170
0.003965
0.003959
go interface jsoniter 140
0.004569
0.004499
0.004436
0.004436
0.004431
0.004458
0.004612
0.004421
0.004555
0.004509
go interface jsoniter 150
0.005681
0.005565
0.005796
0.005707
0.005785
0.005902
0.005675
0.005853
0.005858
0.005822
go interface jsoniter 160
0.006629
0.006402
0.006415
0.006717
0.006606
0.006732
0.006462
0.006960
0.007006
0.006553
go interface jsoniter 170
0.007459
0.007187
0.007068
0.006996
0.006879
0.007244
0.006933
0.007004
0.007161
0.006880
go interface jsoniter 180
0.007571
0.007795
0.008021
0.007573
0.007670
0.007592
0.008095
0.008122
0.007995
0.008293
go interface jsoniter 190
0.008387
0.008297
0.008339
0.008434
0.008302
0.008257
0.008272
0.008285
0.008262
0.008397
go interface jsoniter 200
0.009029
0.008980
0.009036
0.009015
0.009111
0.009166
0.009022
0.008890
0.009203
0.009024
go struct std 10
0.000138
0.000131
0.000131
0.000143
0.000133
0.000125
0.000126
0.000125
0.000141
0.000127
go struct std 20
0.000253
0.000246
0.000244
0.000245
0.000244
0.000249
0.000243
0.000244
0.000247
0.000247
go struct std 30
0.000402
0.000391
0.000390
0.000395
0.000415
0.000394
0.000392
0.000422
0.000390
0.000391
go struct std 40
0.000568
0.000568
0.000564
0.000564
0.000570
0.000569
0.000581
0.000563
0.000570
0.000587
go struct std 50
0.000810
0.000767
0.000805
0.000787
0.000769
0.000792
0.000788
0.000829
0.000789
0.000769
go struct std 60
0.001058
0.001000
0.001009
0.001003
0.000998
0.001006
0.001000
0.001000
0.001001
0.001012
go struct std 70
0.001300
0.001313
0.001289
0.001274
0.001299
0.001271
0.001276
0.001293
0.001295
0.001268
go struct std 80
0.001583
0.001611
0.001554
0.001580
0.001619
0.001589
0.001568
0.001574
0.001588
0.001568
go struct std 90
0.001897
0.001863
0.001893
0.001916
0.001896
0.001877
0.001895
0.001888
0.001883
0.001923
go struct std 100
0.002230
0.002267
0.002252
0.002242
0.002256
0.002259
0.002205
0.002251
0.002203
0.002277
go struct std 110
0.002651
0.002593
0.002659
0.002564
0.002635
0.002613
0.002680
0.002615
0.002596
0.002607
go struct std 120
0.002976
0.003001
0.002968
0.003004
0.002954
0.002993
0.002973
0.003046
0.003035
0.003039
go struct std 130
0.003438
0.003597
0.003460
0.003428
0.003397
0.003833
0.003404
0.003571
0.003446
0.003564
go struct std 140
0.003867
0.003915
0.003945
0.003856
0.003811
0.003843
0.003995
0.003876
0.003840
0.003867
go struct std 150
0.004314
0.004344
0.004314
0.004334
0.004321
0.004326
0.004320
0.004312
0.004315
0.004349
go struct std 160
0.004886
0.004804
0.004800
0.004836
0.004884
0.004831
0.004812
0.004828
0.004815
0.004814
go struct std 170
0.005440
0.005382
0.005367
0.005408
0.005406
0.005405
0.005397
0.005391
0.005415
0.005386
go struct std 180
0.005972
0.005909
0.005948
0.006363
0.005939
0.005914
0.005872
0.005894
0.005913
0.005978
go struct std 190
0.006523
0.006562
0.006504
0.006507
0.006506
0.006588
0.006494
0.006481
0.006507
0.006524
go struct std 200
0.007112
0.007106
0.007118
0.007142
0.007096
0.007091
0.007074
0.007141
0.007094
0.007114
go struct jsoniter 10
0.000628
0.000601
0.000580
0.000584
0.000621
0.000621
0.000622
0.000589
0.000619
0.000585
go struct jsoniter 20
0.000642
0.000655
0.000610
0.000611
0.000600
0.000675
0.000628
0.000643
0.000609
0.000623
go struct jsoniter 30
0.000676
0.000665
0.000681
0.000702
0.000665
0.000649
0.000658
0.000655
0.000676
0.000676
go struct jsoniter 40
0.000708
0.000701
0.000724
0.000714
0.000711
0.000696
0.000721
0.000698
0.000730
0.000775
go struct jsoniter 50
0.000835
0.000864
0.000843
0.000766
0.000790
0.000830
0.000774
0.000758
0.000766
0.000759
go struct jsoniter 60
0.000858
0.001043
0.000842
0.000946
0.000847
0.000823
0.000884
0.000837
0.000846
0.000880
go struct jsoniter 70
0.000951
0.000942
0.000943
0.000923
0.000892
0.000918
0.000921
0.000937
0.000914
0.000905
go struct jsoniter 80
0.001039
0.000974
0.001003
0.000987
0.000991
0.000991
0.001019
0.001005
0.001002
0.001020
go struct jsoniter 90
0.001155
0.001107
0.001149
0.001085
0.001131
0.001068
0.001114
0.001086
0.001100
0.001064
go struct jsoniter 100
0.001188
0.001167
0.001229
0.001203
0.001195
0.001212
0.001184
0.001173
0.001225
0.001208
go struct jsoniter 110
0.001415
0.001343
0.001273
0.001308
0.001349
0.001309
0.001323
0.001320
0.001297
0.001328
go struct jsoniter 120
0.001480
0.001465
0.001414
0.001436
0.001438
0.001401
0.001416
0.001399
0.001435
0.001441
go struct jsoniter 130
0.001639
0.001412
0.001393
0.001428
0.001537
0.001566
0.001564
0.001586
0.001656
0.001533
go struct jsoniter 140
0.001682
0.001706
0.001699
0.001687
0.001679
0.001662
0.001657
0.001676
0.001673
0.001755
go struct jsoniter 150
0.001874
0.001865
0.001802
0.001821
0.001888
0.001849
0.001782
0.001806
0.001828
0.001826
go struct jsoniter 160
0.002096
0.002005
0.002002
0.002049
0.002065
0.001973
0.001959
0.001964
0.001942
0.001956
go struct jsoniter 170
0.002227
0.002177
0.002169
0.002248
0.002258
0.002217
0.002003
0.002089
0.002190
0.002137
go struct jsoniter 180
0.002271
0.002309
0.002335
0.002292
0.002179
0.002177
0.002220
0.002344
0.002303
0.002263
go struct jsoniter 190
0.002144
0.002457
0.002505
0.002490
0.002530
0.002471
0.002472
0.002511
0.002494
0.002453
go struct jsoniter 200
0.002712
0.002658
0.002521
0.002738
0.002700
0.002698
0.002710
0.002669
0.002661
0.002641
